Día|Horario|Tipo de Propuesta|Formato|Sede|Lugar|Título|A cargo de...|Descripción|Otros
3.Sábado|20:00|Recital|Presencial|Brown|Salón Principal|Soundtrack|Soundtrack||
3.Sábado|21:00|Espacio|Presencial|Brown|Salón Auditorio|Asamblea Anual del ENJM|Todo el mundo||
4.Domingo|13:45|Presentación de Juego|Presencial|Brown|Mesa de Presentaciones|Una que Pensamos Todes|Eugenio Carla y Santiago Martín Jerez Ferrante|"Somos JF Juegos. Un nuevo emprendimiento de diseño, difusión y edición de juegos de mesa. En esta ocasión nos gustaría acercar nuestra primera propuesta original: """"Una Que Pensamos Todes (UQPT)"""". La intención sería presentar el juego y el emprendimiento a las distintas personas que asistan al evento, así como a los distintos gestores y editoriales que formen parte del mismo. UQPT es un juego de asociaciones. Un juego que propone descubrir los rincones de nuestras mentes que compartimos con el resto. Una vez por ronda, una persona dará vuelta, al mismo tiempo, una carta del Mazo de Contextos y una carta del Mazo Disparador. Cada jugadorx tendrá entonces un minuto para pensar o anotar, un concepto o idea que asocie ambas cartas. Una vez que todas las personas hayan pensado o anotado, o una vez que haya pasado el minuto entero, se revelarán las asociaciones y veremos quién suma puntos. Una vez reveladas todas las asociaciones, veremos si hemos tenido coincidencias con otras personas. Contaremos cuantas personas pusieron lo mismo que nosotres y ese será nuestro puntaje. Al final de 10 rondas, quien haya sumado más puntos ganará el juego."|
4.Domingo|14:15|Presentación de Juego|Presencial|Brown|Mesa de Presentaciones|Versus|Iván Dubner (Santa Fé)|Lanzamiento a nivel nacional|
4.Domingo|13:15|Charla|Presencial|Brown|Sala de Charlas|Charla Juegos Abstractos|Adrián Cassi (Córdoba) y Ricardo Acuña (C Rivadavia)|x|
